﻿{
  "Textures":
  [
    {
      "Name": "Tabletop",
      "Path": "Game/Table"
    },
    {
      "Name": "TabletopB",
      "Path": "Game/BloodyTable"
    },
    {
      "Name": "HealthIco",
      "Path": "Game/Health_ico"
    },
    {
      "Name": "ArmorIco",
      "Path": "Game/Armor_ico"
    },
    {
      "Name": "WeaponIco",
      "Path": "Game/Weapon_ico"
    },
    {
      "Name": "Mouse",
      "Path": "GUI/mouse"
    },
    {
      "Name": "MeleIco",
      "Path": "Game/Mele_ico"
    },
    {
      "Name": "CardHighlight",
      "Path": "Game/Highlight"
    }
  ],
  "SpriteSheets":
  [
    {
      "Name": "Button",
      "Path": "GUI/Button",
      "Size":
      {
        "X": 344,
        "Y": 128
      }
    }
  ],
  "Fonts":
  [
    {
      "Name": "Board",
      "Path": "GUI/Fonts/Board"
    },
    {
      "Name": "Menu",
      "Path": "GUI/Fonts/Menu"
    }
  ],
  "Background": "Tabletop",
  "Mouse":  "Mouse" 
}
